<?xml version="1.0" encoding="windows-1252" standalone="no"?>
<!DOCTYPE log SYSTEM "logger.dtd">
<log>
<record>
  <date>2022-09-19T17:13:41.989434500Z</date>
  <millis>1663607621989</millis>
  <nanos>434500</nanos>
  <sequence>0</sequence>
  <logger>global</logger>
  <level>SEVERE</level>
  <class>mainpackage.Main</class>
  <method>main</method>
  <thread>1</thread>
  <message>severe message</message>
</record>
<record>
  <date>2022-09-19T17:13:42.105459300Z</date>
  <millis>1663607622105</millis>
  <nanos>459300</nanos>
  <sequence>1</sequence>
  <logger>global</logger>
  <level>WARNING</level>
  <class>mainpackage.Main</class>
  <method>main</method>
  <thread>1</thread>
  <message>warning message</message>
</record>
<record>
  <date>2022-09-19T17:13:42.114474Z</date>
  <millis>1663607622114</millis>
  <nanos>474000</nanos>
  <sequence>2</sequence>
  <logger>global</logger>
  <level>INFO</level>
  <class>mainpackage.Main</class>
  <method>main</method>
  <thread>1</thread>
  <message>info message</message>
</record>
</log>
<?xml version="1.0" encoding="windows-1252" standalone="no"?>
<!DOCTYPE log SYSTEM "logger.dtd">
<log>
<record>
  <date>2022-09-19T17:13:42.280089Z</date>
  <millis>1663607622280</millis>
  <nanos>89000</nanos>
  <sequence>0</sequence>
  <logger>global</logger>
  <level>SEVERE</level>
  <class>mainpackage.Main</class>
  <method>main</method>
  <thread>1</thread>
  <message>severe message</message>
</record>
<record>
  <date>2022-09-19T17:13:42.391113200Z</date>
  <millis>1663607622391</millis>
  <nanos>113200</nanos>
  <sequence>1</sequence>
  <logger>global</logger>
  <level>WARNING</level>
  <class>mainpackage.Main</class>
  <method>main</method>
  <thread>1</thread>
  <message>warning message</message>
</record>
<record>
  <date>2022-09-19T17:13:42.392115100Z</date>
  <millis>1663607622392</millis>
  <nanos>115100</nanos>
  <sequence>2</sequence>
  <logger>global</logger>
  <level>INFO</level>
  <class>mainpackage.Main</class>
  <method>main</method>
  <thread>1</thread>
  <message>info message</message>
</record>
</log>
<?xml version="1.0" encoding="windows-1252" standalone="no"?>
<!DOCTYPE log SYSTEM "logger.dtd">
<log>
<record>
  <date>2022-09-19T17:16:41.345156700Z</date>
  <millis>1663607801345</millis>
  <nanos>156700</nanos>
  <sequence>0</sequence>
  <logger>global</logger>
  <level>SEVERE</level>
  <class>mainpackage.Main</class>
  <method>main</method>
  <thread>1</thread>
  <message>severe message</message>
</record>
<record>
  <date>2022-09-19T17:16:41.515199800Z</date>
  <millis>1663607801515</millis>
  <nanos>199800</nanos>
  <sequence>1</sequence>
  <logger>global</logger>
  <level>WARNING</level>
  <class>mainpackage.Main</class>
  <method>main</method>
  <thread>1</thread>
  <message>warning message</message>
</record>
<record>
  <date>2022-09-19T17:16:41.516195800Z</date>
  <millis>1663607801516</millis>
  <nanos>195800</nanos>
  <sequence>2</sequence>
  <logger>global</logger>
  <level>INFO</level>
  <class>mainpackage.Main</class>
  <method>main</method>
  <thread>1</thread>
  <message>info message</message>
</record>
</log>
<?xml version="1.0" encoding="windows-1252" standalone="no"?>
<!DOCTYPE log SYSTEM "logger.dtd">
<log>
<record>
  <date>2022-09-19T17:24:05.248345800Z</date>
  <millis>1663608245248</millis>
  <nanos>345800</nanos>
  <sequence>0</sequence>
  <logger>global</logger>
  <level>SEVERE</level>
  <class>mainpackage.Main</class>
  <method>main</method>
  <thread>1</thread>
  <message>severe message</message>
</record>
<record>
  <date>2022-09-19T17:24:05.376382Z</date>
  <millis>1663608245376</millis>
  <nanos>382000</nanos>
  <sequence>1</sequence>
  <logger>global</logger>
  <level>WARNING</level>
  <class>mainpackage.Main</class>
  <method>main</method>
  <thread>1</thread>
  <message>warning message</message>
</record>
<record>
  <date>2022-09-19T17:24:05.377369900Z</date>
  <millis>1663608245377</millis>
  <nanos>369900</nanos>
  <sequence>2</sequence>
  <logger>global</logger>
  <level>INFO</level>
  <class>mainpackage.Main</class>
  <method>main</method>
  <thread>1</thread>
  <message>info message</message>
</record>
</log>
