<?xml version="1.0" encoding="windows-1252" standalone="no"?>
<!DOCTYPE log SYSTEM "logger.dtd">
<log>
<record>
  <date>2022-09-19T07:56:09.093659400Z</date>
  <millis>1663574169093</millis>
  <nanos>659400</nanos>
  <sequence>0</sequence>
  <logger>global</logger>
  <level>SEVERE</level>
  <class>mainpackage.Main</class>
  <method>main</method>
  <thread>1</thread>
  <message>severe message</message>
</record>
<record>
  <date>2022-09-19T07:56:09.215688600Z</date>
  <millis>1663574169215</millis>
  <nanos>688600</nanos>
  <sequence>1</sequence>
  <logger>global</logger>
  <level>WARNING</level>
  <class>mainpackage.Main</class>
  <method>main</method>
  <thread>1</thread>
  <message>warning message</message>
</record>
<record>
  <date>2022-09-19T07:56:09.216692900Z</date>
  <millis>1663574169216</millis>
  <nanos>692900</nanos>
  <sequence>2</sequence>
  <logger>global</logger>
  <level>INFO</level>
  <class>mainpackage.Main</class>
  <method>main</method>
  <thread>1</thread>
  <message>info message</message>
</record>
</log>
<?xml version="1.0" encoding="windows-1252" standalone="no"?>
<!DOCTYPE log SYSTEM "logger.dtd">
<log>
<record>
  <date>2022-09-21T11:26:00.450336700Z</date>
  <millis>1663759560450</millis>
  <nanos>336700</nanos>
  <sequence>0</sequence>
  <logger>global</logger>
  <level>SEVERE</level>
  <class>mainpackage.Main</class>
  <method>main</method>
  <thread>1</thread>
  <message>severe message</message>
</record>
<record>
  <date>2022-09-21T11:26:00.531889100Z</date>
  <millis>1663759560531</millis>
  <nanos>889100</nanos>
  <sequence>1</sequence>
  <logger>global</logger>
  <level>WARNING</level>
  <class>mainpackage.Main</class>
  <method>main</method>
  <thread>1</thread>
  <message>warning message</message>
</record>
<record>
  <date>2022-09-21T11:26:00.531889100Z</date>
  <millis>1663759560531</millis>
  <nanos>889100</nanos>
  <sequence>2</sequence>
  <logger>global</logger>
  <level>INFO</level>
  <class>mainpackage.Main</class>
  <method>main</method>
  <thread>1</thread>
  <message>info message</message>
</record>
