<?xml version="1.0" encoding="windows-1252" standalone="no"?>
<!DOCTYPE log SYSTEM "logger.dtd">
<log>
<record>
  <date>2022-09-19T14:32:19.532894400Z</date>
  <millis>1663597939532</millis>
  <nanos>894400</nanos>
  <sequence>0</sequence>
  <logger>global</logger>
  <level>SEVERE</level>
  <class>mainpackage.Main</class>
  <method>main</method>
  <thread>1</thread>
  <message>severe message</message>
</record>
<record>
  <date>2022-09-19T14:32:19.641427100Z</date>
  <millis>1663597939641</millis>
  <nanos>427100</nanos>
  <sequence>1</sequence>
  <logger>global</logger>
  <level>WARNING</level>
  <class>mainpackage.Main</class>
  <method>main</method>
  <thread>1</thread>
  <message>warning message</message>
</record>
<record>
  <date>2022-09-19T14:32:19.642429500Z</date>
  <millis>1663597939642</millis>
  <nanos>429500</nanos>
  <sequence>2</sequence>
  <logger>global</logger>
  <level>INFO</level>
  <class>mainpackage.Main</class>
  <method>main</method>
  <thread>1</thread>
  <message>info message</message>
</record>
