<?xml version="1.0" encoding="windows-1252" standalone="no"?>
<!DOCTYPE log SYSTEM "logger.dtd">
<log>
<record>
  <date>2022-09-19T14:16:34.782884200Z</date>
  <millis>1663596994782</millis>
  <nanos>884200</nanos>
  <sequence>0</sequence>
  <logger>global</logger>
  <level>SEVERE</level>
  <class>mainpackage.Main</class>
  <method>main</method>
  <thread>1</thread>
  <message>severe message</message>
</record>
<record>
  <date>2022-09-19T14:16:34.857584700Z</date>
  <millis>1663596994857</millis>
  <nanos>584700</nanos>
  <sequence>1</sequence>
  <logger>global</logger>
  <level>WARNING</level>
  <class>mainpackage.Main</class>
  <method>main</method>
  <thread>1</thread>
  <message>warning message</message>
</record>
<record>
  <date>2022-09-19T14:16:34.866021400Z</date>
  <millis>1663596994866</millis>
  <nanos>21400</nanos>
  <sequence>2</sequence>
  <logger>global</logger>
  <level>INFO</level>
  <class>mainpackage.Main</class>
  <method>main</method>
  <thread>1</thread>
  <message>info message</message>
</record>
</log>
<?xml version="1.0" encoding="windows-1252" standalone="no"?>
<!DOCTYPE log SYSTEM "logger.dtd">
<log>
<record>
  <date>2022-09-19T14:19:24.459166100Z</date>
  <millis>1663597164459</millis>
  <nanos>166100</nanos>
  <sequence>0</sequence>
  <logger>global</logger>
  <level>SEVERE</level>
  <class>mainpackage.Main</class>
  <method>main</method>
  <thread>1</thread>
  <message>severe message</message>
</record>
<record>
  <date>2022-09-19T14:19:24.540186900Z</date>
  <millis>1663597164540</millis>
  <nanos>186900</nanos>
  <sequence>1</sequence>
  <logger>global</logger>
  <level>WARNING</level>
  <class>mainpackage.Main</class>
  <method>main</method>
  <thread>1</thread>
  <message>warning message</message>
</record>
<record>
  <date>2022-09-19T14:19:24.541185Z</date>
  <millis>1663597164541</millis>
  <nanos>185000</nanos>
  <sequence>2</sequence>
  <logger>global</logger>
  <level>INFO</level>
  <class>mainpackage.Main</class>
  <method>main</method>
  <thread>1</thread>
  <message>info message</message>
</record>
