<?xml version="1.0" encoding="windows-1252" standalone="no"?>
<!DOCTYPE log SYSTEM "logger.dtd">
<log>
<record>
  <date>2022-09-19T14:32:19.210159500Z</date>
  <millis>1663597939210</millis>
  <nanos>159500</nanos>
  <sequence>0</sequence>
  <logger>global</logger>
  <level>SEVERE</level>
  <class>mainpackage.Main</class>
  <method>main</method>
  <thread>1</thread>
  <message>severe message</message>
</record>
<record>
  <date>2022-09-19T14:32:19.326169800Z</date>
  <millis>1663597939326</millis>
  <nanos>169800</nanos>
  <sequence>1</sequence>
  <logger>global</logger>
  <level>WARNING</level>
  <class>mainpackage.Main</class>
  <method>main</method>
  <thread>1</thread>
  <message>warning message</message>
</record>
<record>
  <date>2022-09-19T14:32:19.334853100Z</date>
  <millis>1663597939334</millis>
  <nanos>853100</nanos>
  <sequence>2</sequence>
  <logger>global</logger>
  <level>INFO</level>
  <class>mainpackage.Main</class>
  <method>main</method>
  <thread>1</thread>
  <message>info message</message>
</record>
